<svg version="1.1" id="Lager_1" xmlns="http://www.w3.org/2000/svg" xmlns:xlink="http://www.w3.org/1999/xlink" x="0px" y="0px"
	 viewBox="0 0 465.66 354.55" style="enable-background:new 0 0 465.66 354.55;" xml:space="preserve">
<style type="text/css">
	.st0{fill:#9E9E9E;stroke:#000000;stroke-width:10;stroke-miterlimit:10;}
	.st1{fill:#D6D6D6;stroke:#000000;stroke-width:10;stroke-miterlimit:10;}
</style>
<path class="st0" d="M313.25,138H201.9v-15.66c0-7.57-5.4-13.76-12-13.76h-50.63c-6.6,0-12,6.19-12,13.76v29.41v113.78
	c0,7.57,5.4,13.76,12,13.76h50.63h123.35c6.6,0,12-6.19,12-13.76V151.76C325.25,144.19,319.85,138,313.25,138z"/>
<path class="st1" d="M325.37,279.29h-186.1c-6.6,0-12-5.4-12-12l22.22-99.23c0-6.6,5.4-12,12-12h186.1c6.6,0,12,5.4,12,12
	l-22.22,99.23C337.37,273.89,331.97,279.29,325.37,279.29z"/>
</svg>
